test/dump.vcd
$version Generated by VerilatedVcd $end
$date Wed Sep 18 22:59:07 2019
 $end
$timescale   1ns $end

  $scope   module   top    $end
    $var wire  1 "}G clock $end
    $scope module leaf $end
      $var wire 64 {u counter [63:0] $end
    $upscope $end
    $scope module fruit $end
      $var wire 4 u) point [3:0] $end
    $upscope $end
  $upscope $end

  $enddefinitions $end
#100
0"}G
#200
1"}G
bzzzzxxxx11110000ZZZZXXXX11110000zzzzxxxx11110000zzzzxxxx11110000 {u
#300
0"}G
b1111000000000000000000000000000000000000000000000000000000000000 {u
b0000 u)
#301
b0000111100000000000000000000000000000000000000000000000000000000 {u
b0001 u)
#302
b0000000011110000000000000000000000000000000000000000000000000000 {u
b0010 u)
#303
b0000000000001111000000000000000000000000000000000000000000000000 {u
b0011 u)
#304
b0000000000000000111100000000000000000000000000000000000000000000 {u
b0100 u)
#305
b0000000000000000000011110000000000000000000000000000000000000000 {u
b0101 u)
#306
b0000000000000000000000001111000000000000000000000000000000000000 {u
b0110 u)
#307
b0000000000000000000000000000111100000000000000000000000000000000 {u
b0111 u)
#308
B0000000000000000000000000000000011110000000000000000000000000000 {u
b1000 u)
#309
b0000000000000000000000000000000000001111000000000000000000000000 {u
b1001 u)
#310
b0000000000000000000000000000000000000000111100000000000000000000 {u
b1010 u)
#311
b0000000000000000000000000000000000000000000011110000000000000000 {u
b1011 u)
#312
b0000000000000000000000000000000000000000000000001111000000000000 {u
b1100 u)
#313
b0000000000000000000000000000000000000000000000000000111100000000 {u
b1101 u)
#314
b0000000000000000000000000000000000000000000000000000000011110000 {u
b1110 u)
#315
b0000000000000000000000000000000000000000000000000000000000001111 {u
b1111 u)
